{
    "href" : "https://api.spotify.com/v1/artists/18ISxWwWjV6rPLoVCXf1dz/albums?offset=0&limit=20&include_groups=album,single,compilation,appears_on&market=DE",
    "items" : [ {
      "album_group" : "album",
      "album_type" : "album",
      "artists" : [ {
        "external_urls" : {
          "spotify" : "https://open.spotify.com/artist/18ISxWwWjV6rPLoVCXf1dz"
        },
        "href" : "https://api.spotify.com/v1/artists/18ISxWwWjV6rPLoVCXf1dz",
        "id" : "18ISxWwWjV6rPLoVCXf1dz",
        "name" : "RIN",
        "type" : "artist",
        "uri" : "spotify:artist:18ISxWwWjV6rPLoVCXf1dz"
      } ],
      "external_urls" : {
        "spotify" : "https://open.spotify.com/album/7FzVARL5hF1iZPpOTCyMpp"
      },
      "href" : "https://api.spotify.com/v1/albums/7FzVARL5hF1iZPpOTCyMpp",
      "id" : "7FzVARL5hF1iZPpOTCyMpp",
      "images" : [ {
        "height" : 640,
        "url" : "https://i.scdn.co/image/ab67616d0000b27311c0f2c4db6be763a8abeafe",
        "width" : 640
      }, {
        "height" : 300,
        "url" : "https://i.scdn.co/image/ab67616d00001e0211c0f2c4db6be763a8abeafe",
        "width" : 300
      }, {
        "height" : 64,
        "url" : "https://i.scdn.co/image/ab67616d0000485111c0f2c4db6be763a8abeafe",
        "width" : 64
      } ],
      "name" : "Nimmerland",
      "release_date" : "2019-12-06",
      "release_date_precision" : "day",
      "total_tracks" : 14,
      "type" : "album",
      "uri" : "spotify:album:7FzVARL5hF1iZPpOTCyMpp"
    }, {
      "album_group" : "album",
      "album_type" : "album",
      "artists" : [ {
        "external_urls" : {
          "spotify" : "https://open.spotify.com/artist/18ISxWwWjV6rPLoVCXf1dz"
        },
        "href" : "https://api.spotify.com/v1/artists/18ISxWwWjV6rPLoVCXf1dz",
        "id" : "18ISxWwWjV6rPLoVCXf1dz",
        "name" : "RIN",
        "type" : "artist",
        "uri" : "spotify:artist:18ISxWwWjV6rPLoVCXf1dz"
      } ],
      "external_urls" : {
        "spotify" : "https://open.spotify.com/album/56RF57X1QdoA5qtGaLoKfP"
      },
      "href" : "https://api.spotify.com/v1/albums/56RF57X1QdoA5qtGaLoKfP",
      "id" : "56RF57X1QdoA5qtGaLoKfP",
      "images" : [ {
        "height" : 640,
        "url" : "https://i.scdn.co/image/ab67616d0000b273ca5155a4ef4957b5baaf4bc0",
        "width" : 640
      }, {
        "height" : 300,
        "url" : "https://i.scdn.co/image/ab67616d00001e02ca5155a4ef4957b5baaf4bc0",
        "width" : 300
      }, {
        "height" : 64,
        "url" : "https://i.scdn.co/image/ab67616d00004851ca5155a4ef4957b5baaf4bc0",
        "width" : 64
      } ],
      "name" : "Planet Megatron",
      "release_date" : "2018-08-17",
      "release_date_precision" : "day",
      "total_tracks" : 12,
      "type" : "album",
      "uri" : "spotify:album:56RF57X1QdoA5qtGaLoKfP"
    }, {
      "album_group" : "album",
      "album_type" : "album",
      "artists" : [ {
        "external_urls" : {
          "spotify" : "https://open.spotify.com/artist/18ISxWwWjV6rPLoVCXf1dz"
        },
        "href" : "https://api.spotify.com/v1/artists/18ISxWwWjV6rPLoVCXf1dz",
        "id" : "18ISxWwWjV6rPLoVCXf1dz",
        "name" : "RIN",
        "type" : "artist",
        "uri" : "spotify:artist:18ISxWwWjV6rPLoVCXf1dz"
      } ],
      "external_urls" : {
        "spotify" : "https://open.spotify.com/album/55tCqWut5gobjBTJMTQJ4h"
      },
      "href" : "https://api.spotify.com/v1/albums/55tCqWut5gobjBTJMTQJ4h",
      "id" : "55tCqWut5gobjBTJMTQJ4h",
      "images" : [ {
        "height" : 640,
        "url" : "https://i.scdn.co/image/ab67616d0000b2736a9a1646460821d889a4435a",
        "width" : 640
      }, {
        "height" : 300,
        "url" : "https://i.scdn.co/image/ab67616d00001e026a9a1646460821d889a4435a",
        "width" : 300
      }, {
        "height" : 64,
        "url" : "https://i.scdn.co/image/ab67616d000048516a9a1646460821d889a4435a",
        "width" : 64
      } ],
      "name" : "EROS (2018)",
      "release_date" : "2018-01-12",
      "release_date_precision" : "day",
      "total_tracks" : 15,
      "type" : "album",
      "uri" : "spotify:album:55tCqWut5gobjBTJMTQJ4h"
    }, {
      "album_group" : "single",
      "album_type" : "single",
      "artists" : [ {
        "external_urls" : {
          "spotify" : "https://open.spotify.com/artist/18ISxWwWjV6rPLoVCXf1dz"
        },
        "href" : "https://api.spotify.com/v1/artists/18ISxWwWjV6rPLoVCXf1dz",
        "id" : "18ISxWwWjV6rPLoVCXf1dz",
        "name" : "RIN",
        "type" : "artist",
        "uri" : "spotify:artist:18ISxWwWjV6rPLoVCXf1dz"
      } ],
      "external_urls" : {
        "spotify" : "https://open.spotify.com/album/6q1nTig1e7fW09fHUsEoXw"
      },
      "href" : "https://api.spotify.com/v1/albums/6q1nTig1e7fW09fHUsEoXw",
      "id" : "6q1nTig1e7fW09fHUsEoXw",
      "images" : [ {
        "height" : 640,
        "url" : "https://i.scdn.co/image/ab67616d0000b2739688e01b83328330cdda60c7",
        "width" : 640
      }, {
        "height" : 300,
        "url" : "https://i.scdn.co/image/ab67616d00001e029688e01b83328330cdda60c7",
        "width" : 300
      }, {
        "height" : 64,
        "url" : "https://i.scdn.co/image/ab67616d000048519688e01b83328330cdda60c7",
        "width" : 64
      } ],
      "name" : "Apple",
      "release_date" : "2021-09-17",
      "release_date_precision" : "day",
      "total_tracks" : 1,
      "type" : "album",
      "uri" : "spotify:album:6q1nTig1e7fW09fHUsEoXw"
    }, {
      "album_group" : "single",
      "album_type" : "single",
      "artists" : [ {
        "external_urls" : {
          "spotify" : "https://open.spotify.com/artist/18ISxWwWjV6rPLoVCXf1dz"
        },
        "href" : "https://api.spotify.com/v1/artists/18ISxWwWjV6rPLoVCXf1dz",
        "id" : "18ISxWwWjV6rPLoVCXf1dz",
        "name" : "RIN",
        "type" : "artist",
        "uri" : "spotify:artist:18ISxWwWjV6rPLoVCXf1dz"
      }, {
        "external_urls" : {
          "spotify" : "https://open.spotify.com/artist/3Z3aTg9PwJ37e8xeO0aUC9"
        },
        "href" : "https://api.spotify.com/v1/artists/3Z3aTg9PwJ37e8xeO0aUC9",
        "id" : "3Z3aTg9PwJ37e8xeO0aUC9",
        "name" : "01099",
        "type" : "artist",
        "uri" : "spotify:artist:3Z3aTg9PwJ37e8xeO0aUC9"
      } ],
      "external_urls" : {
        "spotify" : "https://open.spotify.com/album/3BKr08XDkRlOE44yeMIqPq"
      },
      "href" : "https://api.spotify.com/v1/albums/3BKr08XDkRlOE44yeMIqPq",
      "id" : "3BKr08XDkRlOE44yeMIqPq",
      "images" : [ {
        "height" : 640,
        "url" : "https://i.scdn.co/image/ab67616d0000b273b35078d5c95089ec9ed0bdf4",
        "width" : 640
      }, {
        "height" : 300,
        "url" : "https://i.scdn.co/image/ab67616d00001e02b35078d5c95089ec9ed0bdf4",
        "width" : 300
      }, {
        "height" : 64,
        "url" : "https://i.scdn.co/image/ab67616d00004851b35078d5c95089ec9ed0bdf4",
        "width" : 64
      } ],
      "name" : "1976 (feat. Paul, Zachi & Gustav) [Remix]",
      "release_date" : "2021-08-20",
      "release_date_precision" : "day",
      "total_tracks" : 1,
      "type" : "album",
      "uri" : "spotify:album:3BKr08XDkRlOE44yeMIqPq"
    }, {
      "album_group" : "single",
      "album_type" : "single",
      "artists" : [ {
        "external_urls" : {
          "spotify" : "https://open.spotify.com/artist/18ISxWwWjV6rPLoVCXf1dz"
        },
        "href" : "https://api.spotify.com/v1/artists/18ISxWwWjV6rPLoVCXf1dz",
        "id" : "18ISxWwWjV6rPLoVCXf1dz",
        "name" : "RIN",
        "type" : "artist",
        "uri" : "spotify:artist:18ISxWwWjV6rPLoVCXf1dz"
      } ],
      "external_urls" : {
        "spotify" : "https://open.spotify.com/album/6Zi3ddIocKjhG7Kef8YIAY"
      },
      "href" : "https://api.spotify.com/v1/albums/6Zi3ddIocKjhG7Kef8YIAY",
      "id" : "6Zi3ddIocKjhG7Kef8YIAY",
      "images" : [ {
        "height" : 640,
        "url" : "https://i.scdn.co/image/ab67616d0000b27305bbfe0e30ca685d3ba24331",
        "width" : 640
      }, {
        "height" : 300,
        "url" : "https://i.scdn.co/image/ab67616d00001e0205bbfe0e30ca685d3ba24331",
        "width" : 300
      }, {
        "height" : 64,
        "url" : "https://i.scdn.co/image/ab67616d0000485105bbfe0e30ca685d3ba24331",
        "width" : 64
      } ],
      "name" : "1976",
      "release_date" : "2021-08-13",
      "release_date_precision" : "day",
      "total_tracks" : 1,
      "type" : "album",
      "uri" : "spotify:album:6Zi3ddIocKjhG7Kef8YIAY"
    }, {
      "album_group" : "single",
      "album_type" : "single",
      "artists" : [ {
        "external_urls" : {
          "spotify" : "https://open.spotify.com/artist/18ISxWwWjV6rPLoVCXf1dz"
        },
        "href" : "https://api.spotify.com/v1/artists/18ISxWwWjV6rPLoVCXf1dz",
        "id" : "18ISxWwWjV6rPLoVCXf1dz",
        "name" : "RIN",
        "type" : "artist",
        "uri" : "spotify:artist:18ISxWwWjV6rPLoVCXf1dz"
      } ],
      "external_urls" : {
        "spotify" : "https://open.spotify.com/album/6UthWcyekSOW8F3OnrjprK"
      },
      "href" : "https://api.spotify.com/v1/albums/6UthWcyekSOW8F3OnrjprK",
      "id" : "6UthWcyekSOW8F3OnrjprK",
      "images" : [ {
        "height" : 640,
        "url" : "https://i.scdn.co/image/ab67616d0000b27386f336a7c1296c7fad019783",
        "width" : 640
      }, {
        "height" : 300,
        "url" : "https://i.scdn.co/image/ab67616d00001e0286f336a7c1296c7fad019783",
        "width" : 300
      }, {
        "height" : 64,
        "url" : "https://i.scdn.co/image/ab67616d0000485186f336a7c1296c7fad019783",
        "width" : 64
      } ],
      "name" : "Insomnia (feat. Giant Rooks)",
      "release_date" : "2021-06-25",
      "release_date_precision" : "day",
      "total_tracks" : 1,
      "type" : "album",
      "uri" : "spotify:album:6UthWcyekSOW8F3OnrjprK"
    }, {
      "album_group" : "single",
      "album_type" : "single",
      "artists" : [ {
        "external_urls" : {
          "spotify" : "https://open.spotify.com/artist/18ISxWwWjV6rPLoVCXf1dz"
        },
        "href" : "https://api.spotify.com/v1/artists/18ISxWwWjV6rPLoVCXf1dz",
        "id" : "18ISxWwWjV6rPLoVCXf1dz",
        "name" : "RIN",
        "type" : "artist",
        "uri" : "spotify:artist:18ISxWwWjV6rPLoVCXf1dz"
      } ],
      "external_urls" : {
        "spotify" : "https://open.spotify.com/album/2WQ9gO7Pf5z06kXtcId5Te"
      },
      "href" : "https://api.spotify.com/v1/albums/2WQ9gO7Pf5z06kXtcId5Te",
      "id" : "2WQ9gO7Pf5z06kXtcId5Te",
      "images" : [ {
        "height" : 640,
        "url" : "https://i.scdn.co/image/ab67616d0000b273ff154037af4cdcfdf4668b3a",
        "width" : 640
      }, {
        "height" : 300,
        "url" : "https://i.scdn.co/image/ab67616d00001e02ff154037af4cdcfdf4668b3a",
        "width" : 300
      }, {
        "height" : 64,
        "url" : "https://i.scdn.co/image/ab67616d00004851ff154037af4cdcfdf4668b3a",
        "width" : 64
      } ],
      "name" : "Sado",
      "release_date" : "2021-06-22",
      "release_date_precision" : "day",
      "total_tracks" : 1,
      "type" : "album",
      "uri" : "spotify:album:2WQ9gO7Pf5z06kXtcId5Te"
    }, {
      "album_group" : "single",
      "album_type" : "single",
      "artists" : [ {
        "external_urls" : {
          "spotify" : "https://open.spotify.com/artist/18ISxWwWjV6rPLoVCXf1dz"
        },
        "href" : "https://api.spotify.com/v1/artists/18ISxWwWjV6rPLoVCXf1dz",
        "id" : "18ISxWwWjV6rPLoVCXf1dz",
        "name" : "RIN",
        "type" : "artist",
        "uri" : "spotify:artist:18ISxWwWjV6rPLoVCXf1dz"
      } ],
      "external_urls" : {
        "spotify" : "https://open.spotify.com/album/4B1cqq0JI3f2FgB51BkNPJ"
      },
      "href" : "https://api.spotify.com/v1/albums/4B1cqq0JI3f2FgB51BkNPJ",
      "id" : "4B1cqq0JI3f2FgB51BkNPJ",
      "images" : [ {
        "height" : 640,
        "url" : "https://i.scdn.co/image/ab67616d0000b273974301d3ef7052380d8b5359",
        "width" : 640
      }, {
        "height" : 300,
        "url" : "https://i.scdn.co/image/ab67616d00001e02974301d3ef7052380d8b5359",
        "width" : 300
      }, {
        "height" : 64,
        "url" : "https://i.scdn.co/image/ab67616d00004851974301d3ef7052380d8b5359",
        "width" : 64
      } ],
      "name" : "Sado - A COLORS SHOW",
      "release_date" : "2021-06-22",
      "release_date_precision" : "day",
      "total_tracks" : 1,
      "type" : "album",
      "uri" : "spotify:album:4B1cqq0JI3f2FgB51BkNPJ"
    }, {
      "album_group" : "single",
      "album_type" : "single",
      "artists" : [ {
        "external_urls" : {
          "spotify" : "https://open.spotify.com/artist/18ISxWwWjV6rPLoVCXf1dz"
        },
        "href" : "https://api.spotify.com/v1/artists/18ISxWwWjV6rPLoVCXf1dz",
        "id" : "18ISxWwWjV6rPLoVCXf1dz",
        "name" : "RIN",
        "type" : "artist",
        "uri" : "spotify:artist:18ISxWwWjV6rPLoVCXf1dz"
      } ],
      "external_urls" : {
        "spotify" : "https://open.spotify.com/album/0f2c90djj1uE86y6ZEcDj2"
      },
      "href" : "https://api.spotify.com/v1/albums/0f2c90djj1uE86y6ZEcDj2",
      "id" : "0f2c90djj1uE86y6ZEcDj2",
      "images" : [ {
        "height" : 640,
        "url" : "https://i.scdn.co/image/ab67616d0000b273544c49f586a92c8afd24d62f",
        "width" : 640
      }, {
        "height" : 300,
        "url" : "https://i.scdn.co/image/ab67616d00001e02544c49f586a92c8afd24d62f",
        "width" : 300
      }, {
        "height" : 64,
        "url" : "https://i.scdn.co/image/ab67616d00004851544c49f586a92c8afd24d62f",
        "width" : 64
      } ],
      "name" : "San Andreas",
      "release_date" : "2021-04-30",
      "release_date_precision" : "day",
      "total_tracks" : 1,
      "type" : "album",
      "uri" : "spotify:album:0f2c90djj1uE86y6ZEcDj2"
    }, {
      "album_group" : "single",
      "album_type" : "single",
      "artists" : [ {
        "external_urls" : {
          "spotify" : "https://open.spotify.com/artist/2DysK49GjODUdRupTMZrfb"
        },
        "href" : "https://api.spotify.com/v1/artists/2DysK49GjODUdRupTMZrfb",
        "id" : "2DysK49GjODUdRupTMZrfb",
        "name" : "Schmyt",
        "type" : "artist",
        "uri" : "spotify:artist:2DysK49GjODUdRupTMZrfb"
      }, {
        "external_urls" : {
          "spotify" : "https://open.spotify.com/artist/18ISxWwWjV6rPLoVCXf1dz"
        },
        "href" : "https://api.spotify.com/v1/artists/18ISxWwWjV6rPLoVCXf1dz",
        "id" : "18ISxWwWjV6rPLoVCXf1dz",
        "name" : "RIN",
        "type" : "artist",
        "uri" : "spotify:artist:18ISxWwWjV6rPLoVCXf1dz"
      } ],
      "external_urls" : {
        "spotify" : "https://open.spotify.com/album/3kxEljkaGLjFx0nupBLgy2"
      },
      "href" : "https://api.spotify.com/v1/albums/3kxEljkaGLjFx0nupBLgy2",
      "id" : "3kxEljkaGLjFx0nupBLgy2",
      "images" : [ {
        "height" : 640,
        "url" : "https://i.scdn.co/image/ab67616d0000b2730740cbbda75f75245a75003c",
        "width" : 640
      }, {
        "height" : 300,
        "url" : "https://i.scdn.co/image/ab67616d00001e020740cbbda75f75245a75003c",
        "width" : 300
      }, {
        "height" : 64,
        "url" : "https://i.scdn.co/image/ab67616d000048510740cbbda75f75245a75003c",
        "width" : 64
      } ],
      "name" : "Gift",
      "release_date" : "2021-04-01",
      "release_date_precision" : "day",
      "total_tracks" : 1,
      "type" : "album",
      "uri" : "spotify:album:3kxEljkaGLjFx0nupBLgy2"
    }, {
      "album_group" : "single",
      "album_type" : "single",
      "artists" : [ {
        "external_urls" : {
          "spotify" : "https://open.spotify.com/artist/5pVRwX5ZQR7hfJ18w8ZYkl"
        },
        "href" : "https://api.spotify.com/v1/artists/5pVRwX5ZQR7hfJ18w8ZYkl",
        "id" : "5pVRwX5ZQR7hfJ18w8ZYkl",
        "name" : "Ufo361",
        "type" : "artist",
        "uri" : "spotify:artist:5pVRwX5ZQR7hfJ18w8ZYkl"
      }, {
        "external_urls" : {
          "spotify" : "https://open.spotify.com/artist/18ISxWwWjV6rPLoVCXf1dz"
        },
        "href" : "https://api.spotify.com/v1/artists/18ISxWwWjV6rPLoVCXf1dz",
        "id" : "18ISxWwWjV6rPLoVCXf1dz",
        "name" : "RIN",
        "type" : "artist",
        "uri" : "spotify:artist:18ISxWwWjV6rPLoVCXf1dz"
      } ],
      "external_urls" : {
        "spotify" : "https://open.spotify.com/album/5neGbwZNt8CBqWB3eP0hHV"
      },
      "href" : "https://api.spotify.com/v1/albums/5neGbwZNt8CBqWB3eP0hHV",
      "id" : "5neGbwZNt8CBqWB3eP0hHV",
      "images" : [ {
        "height" : 640,
        "url" : "https://i.scdn.co/image/ab67616d0000b273af4145c4356b523ae4a1aa0b",
        "width" : 640
      }, {
        "height" : 300,
        "url" : "https://i.scdn.co/image/ab67616d00001e02af4145c4356b523ae4a1aa0b",
        "width" : 300
      }, {
        "height" : 64,
        "url" : "https://i.scdn.co/image/ab67616d00004851af4145c4356b523ae4a1aa0b",
        "width" : 64
      } ],
      "name" : "LOW LIFE",
      "release_date" : "2021-03-19",
      "release_date_precision" : "day",
      "total_tracks" : 1,
      "type" : "album",
      "uri" : "spotify:album:5neGbwZNt8CBqWB3eP0hHV"
    }, {
      "album_group" : "single",
      "album_type" : "single",
      "artists" : [ {
        "external_urls" : {
          "spotify" : "https://open.spotify.com/artist/18ISxWwWjV6rPLoVCXf1dz"
        },
        "href" : "https://api.spotify.com/v1/artists/18ISxWwWjV6rPLoVCXf1dz",
        "id" : "18ISxWwWjV6rPLoVCXf1dz",
        "name" : "RIN",
        "type" : "artist",
        "uri" : "spotify:artist:18ISxWwWjV6rPLoVCXf1dz"
      } ],
      "external_urls" : {
        "spotify" : "https://open.spotify.com/album/2kV9q6GR59Ya7VsqWZ7BVh"
      },
      "href" : "https://api.spotify.com/v1/albums/2kV9q6GR59Ya7VsqWZ7BVh",
      "id" : "2kV9q6GR59Ya7VsqWZ7BVh",
      "images" : [ {
        "height" : 640,
        "url" : "https://i.scdn.co/image/ab67616d0000b2731ff72ba76b5d88f4e1c90460",
        "width" : 640
      }, {
        "height" : 300,
        "url" : "https://i.scdn.co/image/ab67616d00001e021ff72ba76b5d88f4e1c90460",
        "width" : 300
      }, {
        "height" : 64,
        "url" : "https://i.scdn.co/image/ab67616d000048511ff72ba76b5d88f4e1c90460",
        "width" : 64
      } ],
      "name" : "Meer",
      "release_date" : "2021-03-05",
      "release_date_precision" : "day",
      "total_tracks" : 1,
      "type" : "album",
      "uri" : "spotify:album:2kV9q6GR59Ya7VsqWZ7BVh"
    }, {
      "album_group" : "single",
      "album_type" : "single",
      "artists" : [ {
        "external_urls" : {
          "spotify" : "https://open.spotify.com/artist/18ISxWwWjV6rPLoVCXf1dz"
        },
        "href" : "https://api.spotify.com/v1/artists/18ISxWwWjV6rPLoVCXf1dz",
        "id" : "18ISxWwWjV6rPLoVCXf1dz",
        "name" : "RIN",
        "type" : "artist",
        "uri" : "spotify:artist:18ISxWwWjV6rPLoVCXf1dz"
      } ],
      "external_urls" : {
        "spotify" : "https://open.spotify.com/album/1meLJBTgRvfK0rfOPzAacy"
      },
      "href" : "https://api.spotify.com/v1/albums/1meLJBTgRvfK0rfOPzAacy",
      "id" : "1meLJBTgRvfK0rfOPzAacy",
      "images" : [ {
        "height" : 640,
        "url" : "https://i.scdn.co/image/ab67616d0000b27384b1c9a6b37c8801caa7b779",
        "width" : 640
      }, {
        "height" : 300,
        "url" : "https://i.scdn.co/image/ab67616d00001e0284b1c9a6b37c8801caa7b779",
        "width" : 300
      }, {
        "height" : 64,
        "url" : "https://i.scdn.co/image/ab67616d0000485184b1c9a6b37c8801caa7b779",
        "width" : 64
      } ],
      "name" : "Dirty South",
      "release_date" : "2021-01-15",
      "release_date_precision" : "day",
      "total_tracks" : 1,
      "type" : "album",
      "uri" : "spotify:album:1meLJBTgRvfK0rfOPzAacy"
    }, {
      "album_group" : "single",
      "album_type" : "single",
      "artists" : [ {
        "external_urls" : {
          "spotify" : "https://open.spotify.com/artist/13bDjug9N0pyv3ZUINjkDV"
        },
        "href" : "https://api.spotify.com/v1/artists/13bDjug9N0pyv3ZUINjkDV",
        "id" : "13bDjug9N0pyv3ZUINjkDV",
        "name" : "Bausa",
        "type" : "artist",
        "uri" : "spotify:artist:13bDjug9N0pyv3ZUINjkDV"
      }, {
        "external_urls" : {
          "spotify" : "https://open.spotify.com/artist/18ISxWwWjV6rPLoVCXf1dz"
        },
        "href" : "https://api.spotify.com/v1/artists/18ISxWwWjV6rPLoVCXf1dz",
        "id" : "18ISxWwWjV6rPLoVCXf1dz",
        "name" : "RIN",
        "type" : "artist",
        "uri" : "spotify:artist:18ISxWwWjV6rPLoVCXf1dz"
      }, {
        "external_urls" : {
          "spotify" : "https://open.spotify.com/artist/5pVRwX5ZQR7hfJ18w8ZYkl"
        },
        "href" : "https://api.spotify.com/v1/artists/5pVRwX5ZQR7hfJ18w8ZYkl",
        "id" : "5pVRwX5ZQR7hfJ18w8ZYkl",
        "name" : "Ufo361",
        "type" : "artist",
        "uri" : "spotify:artist:5pVRwX5ZQR7hfJ18w8ZYkl"
      } ],
      "external_urls" : {
        "spotify" : "https://open.spotify.com/album/6fgZ1vMdzZs8CUmA4c82Ms"
      },
      "href" : "https://api.spotify.com/v1/albums/6fgZ1vMdzZs8CUmA4c82Ms",
      "id" : "6fgZ1vMdzZs8CUmA4c82Ms",
      "images" : [ {
        "height" : 640,
        "url" : "https://i.scdn.co/image/ab67616d0000b2737727a0efa1bc6136c54f4ffe",
        "width" : 640
      }, {
        "height" : 300,
        "url" : "https://i.scdn.co/image/ab67616d00001e027727a0efa1bc6136c54f4ffe",
        "width" : 300
      }, {
        "height" : 64,
        "url" : "https://i.scdn.co/image/ab67616d000048517727a0efa1bc6136c54f4ffe",
        "width" : 64
      } ],
      "name" : "Centre Court",
      "release_date" : "2020-12-18",
      "release_date_precision" : "day",
      "total_tracks" : 1,
      "type" : "album",
      "uri" : "spotify:album:6fgZ1vMdzZs8CUmA4c82Ms"
    }, {
      "album_group" : "single",
      "album_type" : "single",
      "artists" : [ {
        "external_urls" : {
          "spotify" : "https://open.spotify.com/artist/3LPEGy5eAGPgKYJVrkRuSX"
        },
        "href" : "https://api.spotify.com/v1/artists/3LPEGy5eAGPgKYJVrkRuSX",
        "id" : "3LPEGy5eAGPgKYJVrkRuSX",
        "name" : "Kynda Gray",
        "type" : "artist",
        "uri" : "spotify:artist:3LPEGy5eAGPgKYJVrkRuSX"
      }, {
        "external_urls" : {
          "spotify" : "https://open.spotify.com/artist/18ISxWwWjV6rPLoVCXf1dz"
        },
        "href" : "https://api.spotify.com/v1/artists/18ISxWwWjV6rPLoVCXf1dz",
        "id" : "18ISxWwWjV6rPLoVCXf1dz",
        "name" : "RIN",
        "type" : "artist",
        "uri" : "spotify:artist:18ISxWwWjV6rPLoVCXf1dz"
      } ],
      "external_urls" : {
        "spotify" : "https://open.spotify.com/album/7dkeKjwwOexYTKRFr6UZUO"
      },
      "href" : "https://api.spotify.com/v1/albums/7dkeKjwwOexYTKRFr6UZUO",
      "id" : "7dkeKjwwOexYTKRFr6UZUO",
      "images" : [ {
        "height" : 640,
        "url" : "https://i.scdn.co/image/ab67616d0000b273ec7dee6cc12b9c4b98e6e0e2",
        "width" : 640
      }, {
        "height" : 300,
        "url" : "https://i.scdn.co/image/ab67616d00001e02ec7dee6cc12b9c4b98e6e0e2",
        "width" : 300
      }, {
        "height" : 64,
        "url" : "https://i.scdn.co/image/ab67616d00004851ec7dee6cc12b9c4b98e6e0e2",
        "width" : 64
      } ],
      "name" : "Ayo Technology",
      "release_date" : "2020-06-26",
      "release_date_precision" : "day",
      "total_tracks" : 1,
      "type" : "album",
      "uri" : "spotify:album:7dkeKjwwOexYTKRFr6UZUO"
    }, {
      "album_group" : "single",
      "album_type" : "single",
      "artists" : [ {
        "external_urls" : {
          "spotify" : "https://open.spotify.com/artist/18ISxWwWjV6rPLoVCXf1dz"
        },
        "href" : "https://api.spotify.com/v1/artists/18ISxWwWjV6rPLoVCXf1dz",
        "id" : "18ISxWwWjV6rPLoVCXf1dz",
        "name" : "RIN",
        "type" : "artist",
        "uri" : "spotify:artist:18ISxWwWjV6rPLoVCXf1dz"
      } ],
      "external_urls" : {
        "spotify" : "https://open.spotify.com/album/38xCCfybcmBDFD1HVyHhSy"
      },
      "href" : "https://api.spotify.com/v1/albums/38xCCfybcmBDFD1HVyHhSy",
      "id" : "38xCCfybcmBDFD1HVyHhSy",
      "images" : [ {
        "height" : 640,
        "url" : "https://i.scdn.co/image/ab67616d0000b2733ea5eed45459e4aa8ec2ba19",
        "width" : 640
      }, {
        "height" : 300,
        "url" : "https://i.scdn.co/image/ab67616d00001e023ea5eed45459e4aa8ec2ba19",
        "width" : 300
      }, {
        "height" : 64,
        "url" : "https://i.scdn.co/image/ab67616d000048513ea5eed45459e4aa8ec2ba19",
        "width" : 64
      } ],
      "name" : "DAS RENNEN",
      "release_date" : "2020-06-05",
      "release_date_precision" : "day",
      "total_tracks" : 1,
      "type" : "album",
      "uri" : "spotify:album:38xCCfybcmBDFD1HVyHhSy"
    }, {
      "album_group" : "single",
      "album_type" : "single",
      "artists" : [ {
        "external_urls" : {
          "spotify" : "https://open.spotify.com/artist/18ISxWwWjV6rPLoVCXf1dz"
        },
        "href" : "https://api.spotify.com/v1/artists/18ISxWwWjV6rPLoVCXf1dz",
        "id" : "18ISxWwWjV6rPLoVCXf1dz",
        "name" : "RIN",
        "type" : "artist",
        "uri" : "spotify:artist:18ISxWwWjV6rPLoVCXf1dz"
      } ],
      "external_urls" : {
        "spotify" : "https://open.spotify.com/album/0muGgsp4I6VQsU1BACNJAV"
      },
      "href" : "https://api.spotify.com/v1/albums/0muGgsp4I6VQsU1BACNJAV",
      "id" : "0muGgsp4I6VQsU1BACNJAV",
      "images" : [ {
        "height" : 640,
        "url" : "https://i.scdn.co/image/ab67616d0000b273de652776f1384c5e6ca7dfa1",
        "width" : 640
      }, {
        "height" : 300,
        "url" : "https://i.scdn.co/image/ab67616d00001e02de652776f1384c5e6ca7dfa1",
        "width" : 300
      }, {
        "height" : 64,
        "url" : "https://i.scdn.co/image/ab67616d00004851de652776f1384c5e6ca7dfa1",
        "width" : 64
      } ],
      "name" : "Bietigheimication",
      "release_date" : "2019-11-29",
      "release_date_precision" : "day",
      "total_tracks" : 1,
      "type" : "album",
      "uri" : "spotify:album:0muGgsp4I6VQsU1BACNJAV"
    }, {
      "album_group" : "single",
      "album_type" : "single",
      "artists" : [ {
        "external_urls" : {
          "spotify" : "https://open.spotify.com/artist/18ISxWwWjV6rPLoVCXf1dz"
        },
        "href" : "https://api.spotify.com/v1/artists/18ISxWwWjV6rPLoVCXf1dz",
        "id" : "18ISxWwWjV6rPLoVCXf1dz",
        "name" : "RIN",
        "type" : "artist",
        "uri" : "spotify:artist:18ISxWwWjV6rPLoVCXf1dz"
      }, {
        "external_urls" : {
          "spotify" : "https://open.spotify.com/artist/13bDjug9N0pyv3ZUINjkDV"
        },
        "href" : "https://api.spotify.com/v1/artists/13bDjug9N0pyv3ZUINjkDV",
        "id" : "13bDjug9N0pyv3ZUINjkDV",
        "name" : "Bausa",
        "type" : "artist",
        "uri" : "spotify:artist:13bDjug9N0pyv3ZUINjkDV"
      } ],
      "external_urls" : {
        "spotify" : "https://open.spotify.com/album/0XrRoP4wguWunxPUTI04Qq"
      },
      "href" : "https://api.spotify.com/v1/albums/0XrRoP4wguWunxPUTI04Qq",
      "id" : "0XrRoP4wguWunxPUTI04Qq",
      "images" : [ {
        "height" : 640,
        "url" : "https://i.scdn.co/image/ab67616d0000b27367d9af615c12349d73749e4e",
        "width" : 640
      }, {
        "height" : 300,
        "url" : "https://i.scdn.co/image/ab67616d00001e0267d9af615c12349d73749e4e",
        "width" : 300
      }, {
        "height" : 64,
        "url" : "https://i.scdn.co/image/ab67616d0000485167d9af615c12349d73749e4e",
        "width" : 64
      } ],
      "name" : "Keine Liebe",
      "release_date" : "2019-10-18",
      "release_date_precision" : "day",
      "total_tracks" : 1,
      "type" : "album",
      "uri" : "spotify:album:0XrRoP4wguWunxPUTI04Qq"
    }, {
      "album_group" : "single",
      "album_type" : "single",
      "artists" : [ {
        "external_urls" : {
          "spotify" : "https://open.spotify.com/artist/18ISxWwWjV6rPLoVCXf1dz"
        },
        "href" : "https://api.spotify.com/v1/artists/18ISxWwWjV6rPLoVCXf1dz",
        "id" : "18ISxWwWjV6rPLoVCXf1dz",
        "name" : "RIN",
        "type" : "artist",
        "uri" : "spotify:artist:18ISxWwWjV6rPLoVCXf1dz"
      } ],
      "external_urls" : {
        "spotify" : "https://open.spotify.com/album/49FJWzYuQkOYACQ1cMyb6v"
      },
      "href" : "https://api.spotify.com/v1/albums/49FJWzYuQkOYACQ1cMyb6v",
      "id" : "49FJWzYuQkOYACQ1cMyb6v",
      "images" : [ {
        "height" : 640,
        "url" : "https://i.scdn.co/image/ab67616d0000b273f7afeaecf3107f1cc0fb7554",
        "width" : 640
      }, {
        "height" : 300,
        "url" : "https://i.scdn.co/image/ab67616d00001e02f7afeaecf3107f1cc0fb7554",
        "width" : 300
      }, {
        "height" : 64,
        "url" : "https://i.scdn.co/image/ab67616d00004851f7afeaecf3107f1cc0fb7554",
        "width" : 64
      } ],
      "name" : "Fabergé",
      "release_date" : "2019-09-27",
      "release_date_precision" : "day",
      "total_tracks" : 1,
      "type" : "album",
      "uri" : "spotify:album:49FJWzYuQkOYACQ1cMyb6v"
    } ],
    "limit" : 20,
    "next" : "https://api.spotify.com/v1/artists/18ISxWwWjV6rPLoVCXf1dz/albums?offset=20&limit=20&include_groups=album,single,compilation,appears_on&market=DE",
    "offset" : 0,
    "previous" : null,
    "total" : 38
  }